<robot
  name="table">
  <link name="world" />
  <joint name="table_joint" type="fixed">
    <parent link="world" />
    <child link = "table" />
    <origin xyz="0.0 0 0" rpy="0 0 0" />
  </joint>

  <link
    name="table">
    <inertial>
      <origin
        xyz="-1.3868E-18 2.64389972581082E-17 0.58188"
        rpy="0 0 0" />
      <mass
        value="10" />
      <inertia
        ixx="1.75770116451796"
        ixy="-3.6166485463331E-16"
        ixz="3.53511831725085E-17"
        iyy="1.75770116451796"
        iyz="-1.00754931171109E-16"
        izz="1.12058228384598" />
    </inertial>
    <visual>
      <origin
        xyz="0 0 0"
        rpy="1.5707963267949 0 0" />
      <geometry>
        <mesh
          filename="package://sawyer_gazebo_env/models/table_fine/table_fine.STL" />
      </geometry>
      <material
        name="">
        <color
          rgba="1 1 1 1" />
      </material>
    </visual>
    <collision>
      <origin
        xyz="0 0 0"
        rpy="1.5707963267949 0 0" />
      <geometry>
        <mesh
          filename="package://sawyer_gazebo_env/models/table_fine/table_fine.STL" />
      </geometry>
    </collision>
  </link>

  <gazebo reference="table">
  <material>Gazebo/WoodPallet</material>
      <kp>100000000</kp>
      <kd>1</kd>
      <mu1>1</mu1>
      <mu2>1</mu2>
  </gazebo>
</robot>
