<robot
  name="hole_contact_sensor.SLDPRT">
  <link
    name="hole_contact_sensor">
    <inertial>
      <origin
        xyz="0 5.40592273826834E-19 7.5E-05"
        rpy="0 0 0" />
      <mass
        value="0.00035637" />
      <inertia
        ixx="6.73777063483322E-08"
        ixy="-8.6971973323254E-59"
        ixz="1.42040702388629E-42"
        iyy="6.73777063483322E-08"
        iyz="4.12547653656199E-24"
        izz="1.34754076292602E-07" />
    </inertial>
    <visual>
      <origin
        xyz="0 0 0"
        rpy="1.5707963267949 0 0" />
      <geometry>
        <mesh
          filename="package://sawyer_gazebo_env/models/hole_contact_sensor/hole_contact_sensor.STL" />
      </geometry>
      <material
        name="">
        <color
          rgba="0.79216 0.81961 0.93333 1" />
      </material>
    </visual>
    <collision>
      <origin
        xyz="0 0 0"
        rpy="1.5707963267949 0 0" />
      <geometry>
        <mesh
          filename="package://sawyer_gazebo_env/models/hole_contact_sensor/hole_contact_sensor.STL" />
      </geometry>
    </collision>
  </link>
</robot>
